@startuml State Diagram
skinparam backgroundcolor transparent
[*] -> init
init -> idle
idle -> pressure_inflate : Button Trigger
pressure_inflate -down-> pressure_deflate : Pressure increase >160 mmHg 
pressure_deflate -> idle : Pressure increase <60 mmHg 
idle -[#red,dashed]down-> error : Sensors return error


state init {
    init_entry : Configure GPIO Pins
    init_entry : Configure Interfaces
    init_entry : Configure LEDS
    init_entry : Configure Buttons
}

state idle {
    idle_entry -> idle_run
    idle_entry: Breathe LED based on battery level
    idle_entry: turn off pump and solenoids
    idle_entry : initialize button callback to trigger cuff inflation
    idle_entry : clear events
    idle_run : takes baseline pressure reading
    idle_run: turns pump and solenoids on

}

note top of idle 
Waits for button event to take baseline value and turn on peripherals
end note

state pressure_inflate {
    pressure_inflate_entry -> pressure_inflate_run
    pressure_inflate_entry: Set LED to blue for data acquisition
    pressure_inflate_entry: Tell pressure sensor to read at 1ms rate
    pressure_inflate_run: Wait for 160 mmHg difference in pressure from baseline to begin deflating
    pressure_inflate_run: turn pump off, clear event
}

state pressure_deflate {
    pressure_deflate_entry -> pressure_deflate_run
    pressure_deflate_entry: set LED to white
    pressure_deflate_run: wait until less than 60 mmHg difference
    pressure_deflate_run: turn off pump and solenoids
    pressure_deflate_run: return to idle
}

state error {
    error_entry : Disable Sensors
    error_entry : User LED set to RED
    error_entry -> error_run
    error_run : Wait for Reset Event
}

note left of error
If the device is in an error state, the only way to 
reset is to go through a new full power cycle to
try to reconfigure devices, pins, and sensors
end note

@enduml